<?xml version="1.0" encoding="UTF-8" standalone="no"?>
<!-- Generator: Adobe Illustrator 17.1.0, SVG Export Plug-In . SVG Version: 6.00 Build 0)  -->

<svg
   xmlns:dc="http://purl.org/dc/elements/1.1/"
   xmlns:cc="http://creativecommons.org/ns#"
   xmlns:rdf="http://www.w3.org/1999/02/22-rdf-syntax-ns#"
   xmlns:svg="http://www.w3.org/2000/svg"
   xmlns="http://www.w3.org/2000/svg"
   xmlns:sodipodi="http://sodipodi.sourceforge.net/DTD/sodipodi-0.dtd"
   xmlns:inkscape="http://www.inkscape.org/namespaces/inkscape"
   version="1.1"
   id="Calque_1"
   x="0px"
   y="0px"
   viewBox="0 0 7.1 6"
   enable-background="new 0 0 7.1 6"
   xml:space="preserve"
   sodipodi:docname="ICONS-21.svg"
   inkscape:version="0.92.3 (2405546, 2018-03-11)"><metadata
   id="metadata11"><rdf:RDF><cc:Work
       rdf:about=""><dc:format>image/svg+xml</dc:format><dc:type
         rdf:resource="http://purl.org/dc/dcmitype/StillImage" /><dc:title></dc:title></cc:Work></rdf:RDF></metadata><defs
   id="defs9" /><sodipodi:namedview
   pagecolor="#ffffff"
   bordercolor="#666666"
   borderopacity="1"
   objecttolerance="10"
   gridtolerance="10"
   guidetolerance="10"
   inkscape:pageopacity="0"
   inkscape:pageshadow="2"
   inkscape:window-width="754"
   inkscape:window-height="480"
   id="namedview7"
   showgrid="false"
   inkscape:zoom="39.333333"
   inkscape:cx="3.55"
   inkscape:cy="3"
   inkscape:window-x="1053"
   inkscape:window-y="157"
   inkscape:window-maximized="0"
   inkscape:current-layer="Calque_1" />
<g
   id="g4">
	<path
   fill="#0076fe"
   d="M0,5.2C0,5.7,0.4,6,0.8,6h5.8V5.7H6.2V4.8h0.4V4.6h0.4V4.3H6.8V3.4h0.3V3H6.8V2.7L6.3,1.9h0.5V1.4L5.6,0   H1.5L0.5,1.7C0.3,1.8,0.2,2,0.2,2.3c0,0.4,0.4,0.8,0.8,0.8C0.7,3.2,0.4,3.5,0.4,3.8c0,0.2,0.1,0.5,0.3,0.6C0.3,4.5,0,4.8,0,5.2   L0,5.2z M0.5,2.3c0-0.2,0.1-0.3,0.2-0.4h5.3v0.8H1C0.7,2.7,0.5,2.5,0.5,2.3L0.5,2.3z M1.2,3.4h5.2v0.9H1.2C1,4.3,0.8,4.1,0.8,3.8   C0.8,3.6,1,3.4,1.2,3.4L1.2,3.4z M0.8,4.8h5.1v0.9H0.8c-0.2,0-0.4-0.2-0.4-0.4S0.6,4.8,0.8,4.8L0.8,4.8z M0.8,4.8"
   id="path2" />
</g>
</svg>