<?xml version="1.0" encoding="UTF-8" standalone="no"?>
<!-- Generator: Adobe Illustrator 17.1.0, SVG Export Plug-In . SVG Version: 6.00 Build 0)  -->

<svg
   xmlns:dc="http://purl.org/dc/elements/1.1/"
   xmlns:cc="http://creativecommons.org/ns#"
   xmlns:rdf="http://www.w3.org/1999/02/22-rdf-syntax-ns#"
   xmlns:svg="http://www.w3.org/2000/svg"
   xmlns="http://www.w3.org/2000/svg"
   xmlns:sodipodi="http://sodipodi.sourceforge.net/DTD/sodipodi-0.dtd"
   xmlns:inkscape="http://www.inkscape.org/namespaces/inkscape"
   version="1.1"
   id="Calque_1"
   x="0px"
   y="0px"
   viewBox="0 0 7.8 7.1"
   enable-background="new 0 0 7.8 7.1"
   xml:space="preserve"
   sodipodi:docname="ICONS-17.svg"
   inkscape:version="0.92.3 (2405546, 2018-03-11)"><metadata
   id="metadata19"><rdf:RDF><cc:Work
       rdf:about=""><dc:format>image/svg+xml</dc:format><dc:type
         rdf:resource="http://purl.org/dc/dcmitype/StillImage" /><dc:title></dc:title></cc:Work></rdf:RDF></metadata><defs
   id="defs17" /><sodipodi:namedview
   pagecolor="#ffffff"
   bordercolor="#666666"
   borderopacity="1"
   objecttolerance="10"
   gridtolerance="10"
   guidetolerance="10"
   inkscape:pageopacity="0"
   inkscape:pageshadow="2"
   inkscape:window-width="1853"
   inkscape:window-height="1025"
   id="namedview15"
   showgrid="false"
   inkscape:zoom="33.239437"
   inkscape:cx="3.9000001"
   inkscape:cy="3.55"
   inkscape:window-x="67"
   inkscape:window-y="27"
   inkscape:window-maximized="1"
   inkscape:current-layer="Calque_1" />
<g
   id="g12">
	<g
   id="g10">
		<g
   id="g4">
			<path
   fill="#010101"
   d="M7.8,6.7L4.1,0.1C4.1,0.1,4,0,3.9,0C3.8,0,3.7,0.1,3.7,0.1L0,6.7C0,6.8,0,6.9,0,7c0,0.1,0.1,0.1,0.2,0.1     h7.3c0.1,0,0.2-0.1,0.2-0.1C7.8,6.9,7.8,6.8,7.8,6.7L7.8,6.7z M0.7,6.6l3.2-5.8l3.2,5.8H0.7z M0.7,6.6"
   id="path2" />
		</g>
		<path
   fill="#010101"
   d="M3.6,2.8v2c0,0.2,0.2,0.3,0.3,0.3c0.2,0,0.3-0.2,0.3-0.3v-2c0-0.2-0.2-0.3-0.3-0.3    C3.7,2.4,3.6,2.6,3.6,2.8L3.6,2.8z M3.6,2.8"
   id="path6" />
		<path
   fill="#010101"
   d="M3.9,5.4c-0.2,0-0.4,0.2-0.4,0.4c0,0.2,0.2,0.4,0.4,0.4c0.2,0,0.4-0.2,0.4-0.4C4.3,5.6,4.1,5.4,3.9,5.4    L3.9,5.4z M3.9,5.4"
   id="path8" />
	</g>
</g>
</svg>