<?xml version="1.0" encoding="UTF-8" standalone="no"?>
<!-- Generator: Adobe Illustrator 17.1.0, SVG Export Plug-In . SVG Version: 6.00 Build 0)  -->

<svg
   xmlns:dc="http://purl.org/dc/elements/1.1/"
   xmlns:cc="http://creativecommons.org/ns#"
   xmlns:rdf="http://www.w3.org/1999/02/22-rdf-syntax-ns#"
   xmlns:svg="http://www.w3.org/2000/svg"
   xmlns="http://www.w3.org/2000/svg"
   xmlns:sodipodi="http://sodipodi.sourceforge.net/DTD/sodipodi-0.dtd"
   xmlns:inkscape="http://www.inkscape.org/namespaces/inkscape"
   version="1.1"
   id="Calque_1"
   x="0px"
   y="0px"
   viewBox="0 0 21.3 21.3"
   enable-background="new 0 0 21.3 21.3"
   xml:space="preserve"
   sodipodi:docname="quiz.svg"
   inkscape:version="0.92.3 (2405546, 2018-03-11)"><metadata
   id="metadata38"><rdf:RDF><cc:Work
       rdf:about=""><dc:format>image/svg+xml</dc:format><dc:type
         rdf:resource="http://purl.org/dc/dcmitype/StillImage" /><dc:title></dc:title></cc:Work></rdf:RDF></metadata><defs
   id="defs36" /><sodipodi:namedview
   pagecolor="#ffffff"
   bordercolor="#666666"
   borderopacity="1"
   objecttolerance="10"
   gridtolerance="10"
   guidetolerance="10"
   inkscape:pageopacity="0"
   inkscape:pageshadow="2"
   inkscape:window-width="754"
   inkscape:window-height="480"
   id="namedview34"
   showgrid="false"
   inkscape:zoom="11.079813"
   inkscape:cx="10.65"
   inkscape:cy="10.65"
   inkscape:window-x="67"
   inkscape:window-y="27"
   inkscape:window-maximized="0"
   inkscape:current-layer="Calque_1" />
<g
   id="g31">
	<g
   id="sEOQZn.tif_3_">
		<g
   id="g26">
			<path
   fill="#FFFFFF"
   d="M15.5,17.3c0-0.2,0-0.3,0-0.4c0-2.5,0-5,0-7.5c0-0.1,0-0.2-0.2-0.2c-1.4-0.3-2.2-1.7-1.7-3.1     c0,0,0-0.1,0-0.1c-2.3,0-4.7,0-7,0c0,0,0,0.1,0,0.1c0,3,0,6,0,9c0,0.2-0.1,0.4-0.3,0.4C6.1,15.4,6,15.3,6,15c0-1.1,0-2.1,0-3.2     c0-2,0-4.1,0-6.1c0-0.3,0.1-0.4,0.4-0.4c2.5,0,4.9,0,7.4,0c0.1,0,0.2,0,0.3-0.1c0.3-0.4,0.7-0.6,1.2-0.7c0.2,0,0.2-0.1,0.2-0.2     c0,0,0,0,0,0c-0.2,0-0.3-0.2-0.3-0.3c0-0.2,0.1-0.2,0.3-0.2c0.2,0,0.3,0,0.5,0c0.2,0,0.3,0.1,0.4,0.2c0,0.2-0.1,0.3-0.3,0.3     c0,0.1,0,0.2,0.2,0.2c0.3,0.1,0.6,0.2,0.9,0.4C17.2,5,17.3,5,17.3,5c0,0,0.1-0.1,0.1-0.1c0.1-0.1,0.3-0.1,0.4,0     c0.1,0.1,0.1,0.3,0,0.4c-0.3,0.2-0.2,0.4,0,0.6c0.7,1.4-0.1,3-1.6,3.3C16,9.1,16,9.2,16,9.3c0,2.7,0,5.4,0,8.1     c0,0.3-0.1,0.4-0.4,0.4c-3.1,0-6.1,0-9.2,0c-0.3,0-0.4-0.1-0.4-0.3c0-0.2,0.1-0.3,0.4-0.3c2.9,0,5.9,0,8.8,0     C15.3,17.3,15.4,17.3,15.5,17.3z M15.5,5.1C14.8,5.2,14,5.9,14,6.5c0.3,0,0.5,0.1,0.4,0.3c0,0.3-0.2,0.3-0.5,0.3     c0.1,0.7,0.8,1.4,1.4,1.4c0.1-0.4,0.1-0.4,0.3-0.4c0.2,0,0.2,0.1,0.3,0.4c0.6,0,1.4-0.8,1.4-1.4C17.1,7.1,17,7,17,6.8     c0-0.3,0.2-0.3,0.4-0.3c0-0.6-0.7-1.4-1.4-1.4c-0.1,0.4-0.1,0.5-0.3,0.5C15.6,5.6,15.5,5.5,15.5,5.1z"
   id="path2" />
			<path
   fill="#FFFFFF"
   d="M10.1,6.9c0.8,0,1.5,0,2.3,0c0.3,0,0.4,0.1,0.4,0.3c0,0.4,0,0.7,0,1.1c0,0.2-0.1,0.3-0.3,0.3     c-1.6,0-3.1,0-4.7,0c-0.2,0-0.3-0.1-0.3-0.3c0-0.4,0-0.8,0-1.1c0-0.2,0.1-0.3,0.3-0.3C8.6,6.9,9.4,6.9,10.1,6.9z M12.2,7.4     c-0.1,0-0.1,0-0.2,0c-1.3,0-2.5,0-3.8,0c-0.1,0-0.1,0-0.2,0c0,0-0.1,0-0.1,0.1c0,0.2,0,0.4,0,0.6c1.4,0,2.8,0,4.2,0     C12.2,7.9,12.2,7.7,12.2,7.4z"
   id="path4" />
			<path
   fill="#FFFFFF"
   d="M12.3,14.5c-0.5,0-1,0-1.5,0c0,0-0.1,0-0.1,0c-0.2,0-0.3-0.1-0.3-0.3c0-0.2,0.1-0.3,0.3-0.3     c0.2,0,0.3,0,0.5,0c0.9,0,1.8,0,2.7,0c0,0,0.1,0,0.1,0c0.2,0,0.3,0.1,0.3,0.3c0,0.2-0.1,0.3-0.3,0.3c-0.2,0-0.4,0-0.5,0     C13.1,14.5,12.7,14.5,12.3,14.5z"
   id="path6" />
			<path
   fill="#FFFFFF"
   d="M12.3,10.9c-0.5,0-1,0-1.6,0c-0.1,0-0.1,0-0.2,0c-0.1,0-0.2-0.1-0.2-0.3c0-0.1,0.1-0.2,0.2-0.3     c0.1,0,0.1,0,0.2,0c1,0,2,0,3.1,0c0,0,0.1,0,0.1,0c0.2,0,0.3,0.1,0.3,0.3c0,0.2-0.1,0.3-0.3,0.3C13.4,10.9,12.9,10.9,12.3,10.9z"
   id="path8" />
			<path
   fill="#FFFFFF"
   d="M9.3,10.5c0,0.2-0.1,0.5-0.4,0.6c-0.1,0.1-0.2,0.1-0.2,0.3c0,0.2-0.2,0.3-0.3,0.2c-0.1,0-0.3-0.1-0.2-0.3     c0-0.3,0.1-0.5,0.3-0.6c0,0,0.1,0,0.1-0.1c0.1-0.1,0.1-0.2,0.1-0.3c-0.1-0.1-0.1-0.2-0.3-0.2c-0.1,0-0.2,0.1-0.2,0.2     c0,0,0,0.1,0,0.1c0,0.2-0.1,0.3-0.3,0.2c-0.1,0-0.2-0.1-0.2-0.3c0-0.5,0.6-0.9,1.1-0.8C9.1,9.8,9.3,10.1,9.3,10.5z"
   id="path10" />
			<path
   fill="#FFFFFF"
   d="M9.3,14.2c0,0.3-0.1,0.5-0.4,0.7c-0.1,0.1-0.2,0.1-0.2,0.3c0,0.2-0.2,0.3-0.3,0.2c-0.1,0-0.3-0.1-0.2-0.3     c0-0.2,0.1-0.4,0.3-0.6c0,0,0.1-0.1,0.1-0.1c0.1-0.1,0.1-0.2,0.1-0.3C8.7,14,8.6,14,8.5,14c-0.1,0-0.2,0.1-0.3,0.2     c0,0,0,0.1,0,0.1c0,0.2-0.1,0.3-0.3,0.2c-0.1,0-0.2-0.1-0.2-0.3c0-0.3,0.2-0.6,0.5-0.7c0.3-0.1,0.7-0.1,0.9,0.2     C9.2,13.8,9.3,14,9.3,14.2z"
   id="path12" />
			<path
   fill="#FFFFFF"
   d="M11.9,12.1c-0.4,0-0.8,0-1.2,0c-0.2,0-0.4-0.2-0.3-0.4c0-0.1,0.1-0.2,0.3-0.2c0.8,0,1.6,0,2.4,0     c0.2,0,0.3,0.1,0.3,0.3c0,0.2-0.1,0.3-0.3,0.3C12.7,12.1,12.3,12.1,11.9,12.1z"
   id="path14" />
			<path
   fill="#FFFFFF"
   d="M11.9,15.7c-0.4,0-0.8,0-1.2,0c-0.2,0-0.3-0.1-0.3-0.2c0-0.1,0-0.2,0.2-0.3c0,0,0.1,0,0.2,0     c0.8,0,1.6,0,2.3,0c0.2,0,0.3,0.1,0.3,0.3c0,0.2-0.1,0.3-0.3,0.3C12.6,15.7,12.3,15.7,11.9,15.7C11.9,15.7,11.9,15.7,11.9,15.7z"
   id="path16" />
			<path
   fill="#FFFFFF"
   d="M8.8,12.3c0,0.1-0.1,0.3-0.3,0.3c-0.1,0-0.3-0.1-0.3-0.3c0-0.1,0.1-0.3,0.3-0.3C8.6,12,8.8,12.2,8.8,12.3     z"
   id="path18" />
			<path
   fill="#FFFFFF"
   d="M8.8,16.1c0,0.1-0.1,0.3-0.3,0.3c-0.1,0-0.3-0.1-0.3-0.3c0-0.1,0.1-0.3,0.3-0.3     C8.7,15.8,8.8,15.9,8.8,16.1z"
   id="path20" />
			<path
   fill="#FFFFFF"
   d="M6.3,16.1c0.1,0,0.3,0.1,0.3,0.3c0,0.1-0.1,0.3-0.3,0.3c-0.2,0-0.3-0.1-0.3-0.3C6,16.2,6.2,16.1,6.3,16.1     z"
   id="path22" />
			<path
   fill="#FFFFFF"
   d="M15.7,7.1C15.6,7,15.5,7,15.5,6.9c0-0.1,0-0.2,0-0.3c0.2-0.2,0.4-0.5,0.7-0.7c0.1-0.1,0.3-0.1,0.4,0     c0.1,0.1,0.1,0.3,0,0.4c-0.2,0.2-0.5,0.5-0.7,0.7C15.8,7,15.8,7.1,15.7,7.1z"
   id="path24" />
		</g>
	</g>
</g>
</svg>