<?xml version="1.0" encoding="utf-8"?>
<!-- Generator: Adobe Illustrator 24.3.0, SVG Export Plug-In . SVG Version: 6.00 Build 0)  -->
<svg version="1.1" id="Calque_1" xmlns="http://www.w3.org/2000/svg" xmlns:xlink="http://www.w3.org/1999/xlink" x="0px" y="0px"
	 viewBox="0 0 30.33 30.33" style="enable-background:new 0 0 30.33 30.33;" xml:space="preserve">
<style type="text/css">
	.st0{display:none;fill:#FF22FF;}
	.st1{fill:#0076FE;}
</style>
<rect x="0" class="st0" width="30.33" height="30.33"/>
<g>
	<g>
		<path class="st1" d="M22.39,14.63c0-0.69-0.56-1.26-1.26-1.26h-2.35c0.36-0.93,0.51-2.03,0.48-3c-0.01-0.19-0.01-0.29-0.02-0.36
			c-0.02-0.68-0.57-1.23-1.26-1.23c-0.69,0-1.26,0.56-1.26,1.26v0.31c0,1.99-2.55,3.1-4.48,3.58c-0.15-0.33-0.48-0.57-0.86-0.57
			H8.25c-0.17,0-0.31,0.14-0.31,0.31v7.54c0,0.17,0.14,0.31,0.31,0.31h3.14c0.38,0,0.71-0.23,0.86-0.56
			c0.16,0.04,0.31,0.08,0.44,0.12c1.1,0.29,1.7,0.44,3.17,0.44h3.38c0.69,0,1.26-0.56,1.26-1.26c0-0.26-0.08-0.5-0.21-0.7
			c0.49-0.17,0.84-0.63,0.84-1.19c0-0.26-0.08-0.5-0.21-0.7c0.48-0.17,0.84-0.63,0.84-1.19c0-0.26-0.08-0.5-0.21-0.7
			C22.04,15.65,22.39,15.18,22.39,14.63z M11.71,20.6c0,0.17-0.14,0.31-0.31,0.31H8.56V14h2.83c0.17,0,0.31,0.14,0.31,0.31V20.6z
			 M21.14,15.26c-0.67,0-0.83,0-1.57,0c-0.17,0-0.31,0.14-0.31,0.31c0,0.17,0.14,0.31,0.31,0.31h0.94c0.35,0,0.63,0.28,0.63,0.63
			c0,0.35-0.28,0.63-0.63,0.63h-1.57c-0.17,0-0.31,0.14-0.31,0.31s0.14,0.31,0.31,0.31h0.94c0.34,0,0.63,0.27,0.63,0.63
			c0,0.35-0.28,0.63-0.63,0.63c-0.67,0-0.83,0-1.57,0c-0.17,0-0.31,0.14-0.31,0.31s0.14,0.31,0.31,0.31h0.94
			c0.35,0,0.63,0.28,0.63,0.63c0,0.35-0.28,0.63-0.63,0.63h-3.38c-1.39,0-1.93-0.14-3.01-0.42c-0.16-0.04-0.33-0.09-0.52-0.14v-5.79
			c2.27-0.54,5.03-1.86,5.03-4.21v-0.31c0-0.35,0.28-0.63,0.63-0.63c0.35,0,0.63,0.28,0.63,0.63v0c0,0.14,0.17,1.81-0.51,3.33h-1.06
			c-0.17,0-0.31,0.14-0.31,0.31c0,0.17,0.14,0.31,0.31,0.31c0.22,0,3.73,0,4.09,0c0.35,0,0.63,0.28,0.63,0.63
			C21.77,14.98,21.48,15.26,21.14,15.26z"/>
	</g>
</g>
</svg>
