<?xml version="1.0" encoding="utf-8"?>
<!-- Generator: Adobe Illustrator 24.3.0, SVG Export Plug-In . SVG Version: 6.00 Build 0)  -->
<svg version="1.1" id="Calque_1" xmlns="http://www.w3.org/2000/svg" xmlns:xlink="http://www.w3.org/1999/xlink" x="0px" y="0px"
	 viewBox="0 0 30.33 30.33" style="enable-background:new 0 0 30.33 30.33;" xml:space="preserve">
<style type="text/css">
	.st0{display:none;fill:#FF22FF;}
	.st1{fill:#0076FE;}
	.st2{fill:#FFFFFF;}
	.st3{fill:none;}
</style>
<rect x="0" class="st0" width="30.33" height="30.33"/>
<g>
	<circle class="st1" cx="15.11" cy="15.16" r="12.81"/>
	<g>
		<g>
			<path class="st2" d="M22.78,10.66h-1.44c-0.3,0-0.3,0.46,0,0.46h1.21v2.13v6.12v1.45l-7.44-0.23l-7.43,0.23v-9.7h1.21
				c0.3,0,0.3-0.46,0-0.46H7.45c-0.12,0-0.23,0.1-0.23,0.23v10.16c0,0.06,0.02,0.12,0.07,0.16c0.04,0.04,0.1,0.07,0.16,0.06
				l7.65-0.24l7.66,0.24h0.01c0.12,0,0.23-0.1,0.23-0.23v-1.68v-6.12v-2.36C23,10.76,22.9,10.66,22.78,10.66z"/>
			<g>
				<path class="st2" d="M15.11,21.04c-0.12,0-0.23-0.1-0.23-0.23V10.42c0-0.08,0.04-0.15,0.11-0.2c1.89-1.14,4.04-1.45,6.39-0.93
					c0.1,0.02,0.18,0.12,0.18,0.22v10.14c0,0.15-0.14,0.26-0.28,0.22c-2-0.48-3.92-0.13-6.06,1.12
					C15.19,21.02,15.15,21.04,15.11,21.04L15.11,21.04z M15.34,10.56v9.86c2.01-1.1,3.87-1.43,5.78-1.04V9.71
					C18.97,9.26,17.08,9.54,15.34,10.56L15.34,10.56z M15.34,10.56"/>
				<path class="st2" d="M15.11,21.04c-0.04,0-0.08-0.01-0.11-0.03c-2.14-1.24-4.06-1.6-6.06-1.12c-0.14,0.03-0.28-0.07-0.28-0.22
					V9.53c0-0.11,0.07-0.2,0.18-0.22c2.35-0.53,4.5-0.22,6.39,0.93c0.07,0.04,0.11,0.12,0.11,0.2v10.38
					C15.34,20.93,15.24,21.04,15.11,21.04L15.11,21.04z M10.65,19.22c1.38,0,2.77,0.39,4.24,1.2v-9.86
					c-1.74-1.01-3.63-1.29-5.78-0.85v9.67C9.62,19.28,10.13,19.22,10.65,19.22L10.65,19.22z M10.65,19.22"/>
				<rect x="7.21" y="9.02" class="st3" width="15.81" height="12.29"/>
			</g>
		</g>
	</g>
</g>
</svg>
