<?xml version="1.0" encoding="utf-8"?>
<!-- Generator: Adobe Illustrator 24.3.0, SVG Export Plug-In . SVG Version: 6.00 Build 0)  -->
<svg version="1.1" id="Calque_1" xmlns="http://www.w3.org/2000/svg" xmlns:xlink="http://www.w3.org/1999/xlink" x="0px" y="0px"
	 viewBox="0 0 30.33 30.33" style="enable-background:new 0 0 30.33 30.33;" xml:space="preserve">
<style type="text/css">
	.st0{fill:#B6D5FE;}
	.st1{fill:#0076FE;}
	.st2{display:none;fill:#FF22FF;}
</style>
<g>
	<circle class="st0" cx="15.11" cy="15.16" r="12.81"/>
	<g>
		<rect x="9.48" y="10.75" class="st1" width="3.13" height="2.53"/>
		<rect x="9.48" y="13.88" class="st1" width="3.13" height="2.53"/>
		<rect x="9.48" y="17.05" class="st1" width="3.13" height="2.53"/>
		<rect x="13.85" y="10.75" class="st1" width="6.9" height="2.53"/>
		<rect x="13.85" y="13.88" class="st1" width="6.9" height="2.53"/>
		<rect x="13.85" y="17.05" class="st1" width="6.9" height="2.53"/>
	</g>
</g>
<rect x="0" class="st2" width="30.33" height="30.33"/>
</svg>
